…
```r
# library(devtools)
#install_github("dgrtwo/widyr")
library(widyr)

# remove punctuation, convert to lowercase, add id for each tweet!
climate_tweets_paired_words <- climate_tweets %>%
  dplyr::select(stripped_text) %>%
  unnest_tokens(paired_words, stripped_text, token = "ngrams", n=2)

climate_tweets_paired_words %>%
  count(paired_words, sort = TRUE)
<<<<<<< HEAD:_posts/courses/earth-analytics/week12/in-class/2017-04-19-social-media-03-r.md
## # A tibble: 67,794 x 2
##           paired_words     n
##                  <chr> <int>
##  1      climate change   666
##  2    climatechange is   443
##  3    of climatechange   341
##  4    on climatechange   335
##  5              of the   286
##  6              in the   284
##  7    to climatechange   210
##  8          the latest   205
##  9 about climatechange   190
## 10                is a   185
## # ... with 67,784 more rows
=======
## # A tibble: 64,350 x 2
##         paired_words     n
##                <chr> <int>
##  1    climate change   968
##  2  of climatechange   737
##  3  climatechange is   524
##  4         impact of   500
##  5 government report   486
##  6    drastic impact   471
##  7      report finds   462
##  8     finds drastic   423
##  9            on u.s   383
## 10            of the   375
## # ... with 64,340 more rows
…
