…
```r
# max note that all_paths doesn't print nicely with the class of each column as i'd like it to.. is there a good way to do this as str is messy too?

# import data using readr
all_paths <- read_csv("data/data_urls.csv")
## Parsed with column specification:
## cols(
##   url = col_character()
## )
all_paths
## # A tibble: 33 x 1
##                                                                            url
##                                                                          <chr>
##  1 https://s3-us-west-2.amazonaws.com/earthlab-teaching/vchm/My_Data2003-bould
##  2 https://s3-us-west-2.amazonaws.com/earthlab-teaching/vchm/My_Data2003-denve
##  3 https://s3-us-west-2.amazonaws.com/earthlab-teaching/vchm/My_Data2003-lyons
##  4 https://s3-us-west-2.amazonaws.com/earthlab-teaching/vchm/My_Data2004-bould
##  5 https://s3-us-west-2.amazonaws.com/earthlab-teaching/vchm/My_Data2004-denve
##  6 https://s3-us-west-2.amazonaws.com/earthlab-teaching/vchm/My_Data2004-lyons
##  7 https://s3-us-west-2.amazonaws.com/earthlab-teaching/vchm/My_Data2005-bould
##  8 https://s3-us-west-2.amazonaws.com/earthlab-teaching/vchm/My_Data2005-denve
##  9 https://s3-us-west-2.amazonaws.com/earthlab-teaching/vchm/My_Data2005-lyons
## 10 https://s3-us-west-2.amazonaws.com/earthlab-teaching/vchm/My_Data2006-bould
## # ... with 23 more rows
…
