…
options(stringsAsFactors = FALSE)
```





```r
# sentiment analysis
sentiments
## # A tibble: 27,314 x 4
##           word sentiment lexicon score
##          <chr>     <chr>   <chr> <int>
##  1      abacus     trust     nrc    NA
##  2     abandon      fear     nrc    NA
##  3     abandon  negative     nrc    NA
##  4     abandon   sadness     nrc    NA
##  5   abandoned     anger     nrc    NA
##  6   abandoned      fear     nrc    NA
##  7   abandoned  negative     nrc    NA
##  8   abandoned   sadness     nrc    NA
##  9 abandonment     anger     nrc    NA
## 10 abandonment      fear     nrc    NA
## # ... with 27,304 more rows
…
