…
```r

#removeWords(str, stop_words$word)
flood_tweets_paired <- flood_tweets %>%
  dplyr::select(tweet_text) %>%
  mutate(tweet_text = removeWords(tweet_text, stop_words$word)) %>%
  mutate(tweet_text = gsub("\\brt\\b|\\bRT\\b", "", tweet_text)) %>%
  unnest_tokens(paired_words, tweet_text, token = "ngrams", n = 2)

#gsub("\\brt\\b", "", " rt mitchellbyars")


flood_tweets_paired %>%
  count(paired_words, sort = TRUE)
## # A tibble: 51,670 x 2
##            paired_words     n
##                   <chr> <int>
##  1         cowx coflood   360
##  2        boulder creek   273
##  3 boulderflood coflood   248
##  4         coflood cowx   162
##  5 coflood boulderflood   156
##  6       boulder county   130
##  7 boulder boulderflood   123
##  8         big thompson   113
##  9          flash flood   113
## 10    boulderflood cowx   110
## # ... with 51,660 more rows
```


```r
flood_tweets_separated <- flood_tweets_paired %>%
  separate(paired_words, c("word1", "word2"), sep = " ")

# new bigram counts:
flood_word_counts <- flood_tweets_separated %>%
  count(word1, word2, sort = TRUE)
flood_word_counts
## # A tibble: 51,670 x 3
##           word1        word2     n
##           <chr>        <chr> <int>
##  1         cowx      coflood   360
##  2      boulder        creek   273
##  3 boulderflood      coflood   248
##  4      coflood         cowx   162
##  5      coflood boulderflood   156
##  6      boulder       county   130
##  7      boulder boulderflood   123
##  8          big     thompson   113
##  9        flash        flood   113
## 10 boulderflood         cowx   110
## # ... with 51,660 more rows
```
…
