…
```r
# library(devtools)
#install_github("dgrtwo/widyr")
library(widyr)
## Error in library(widyr): there is no package called 'widyr'

# remove punctuation, convert to lowercase, add id for each tweet!
climate_tweets_paired_words <- climate_tweets %>%
  dplyr::select(stripped_text) %>%
  unnest_tokens(paired_words, stripped_text, token = "ngrams", n = 2)

climate_tweets_paired_words %>%
  count(paired_words, sort = TRUE)
## # A tibble: 62,824 x 2
##            paired_words     n
##                   <chr> <int>
##  1       climate change  1072
##  2 climatechange denial   502
##  3               in the   501
##  4             tell ups   472
##  5    leave alec_states   469
##  6               of the   389
##  7      ups sustainable   322
##  8      companies don't   321
##  9           don't fund   321
## 10   fund climatechange   321
## # ... with 62,814 more rows
```
…
