…
```r
# library(devtools)
#install_github("dgrtwo/widyr")
library(widyr)
## Error in library(widyr): there is no package called 'widyr'

# remove punctuation, convert to lowercase, add id for each tweet!
climate_tweets_paired_words <- climate_tweets %>%
  dplyr::select(stripped_text) %>%
  unnest_tokens(paired_words, stripped_text, token = "ngrams", n=2)

climate_tweets_paired_words %>%
  count(paired_words, sort = TRUE)
## # A tibble: 42,138 x 2
##              paired_words     n
##                     <chr> <int>
##  1         climate change   366
##  2              the world   334
##  3     with climatechange   262
##  4             around the   255
##  5       climatechange is   242
##  6       of climatechange   242
##  7 climatechange refugees   232
##  8                i stand   232
##  9        refugees around   231
## 10             stand with   231
## # ... with 42,128 more rows
```
…
