…
```r
# library(devtools)
#install_github("dgrtwo/widyr")
library(widyr)

# remove punctuation, convert to lowercase, add id for each tweet!
fire_tweets_paired_words <- fire_tweets %>%
  dplyr::select(stripped_text) %>%
  unnest_tokens(paired_words, stripped_text, token = "ngrams", n=2)

fire_tweets_paired_words %>%
  count(paired_words, sort = TRUE)
## # A tibble: 1,183 × 2
##       paired_words     n
##              <chr> <int>
## 1      forest fire    46
## 2         a forest    22
## 3          start a     9
## 4       the forest     9
## 5  output recovers     8
## 6        oil sands     7
## 7     sands output     7
## 8         to start     6
## 9        a youtube     5
## 10          but it     5
## # ... with 1,173 more rows
```
```r
library(tidyr)
fire_tweets_separated_words <- fire_tweets_paired_words %>%
  separate(paired_words, c("word1", "word2"), sep = " ")

fire_tweets_filtered <- fire_tweets_separated_words %>%
  filter(!word1 %in% stop_words$word) %>%
  filter(!word2 %in% stop_words$word)

# new bigram counts:
fire_words_counts <- fire_tweets_filtered %>% 
  count(word1, word2, sort = TRUE)

fire_words_counts
## Source: local data frame [393 x 3]
## Groups: word1 [296]
## 
##       word1      word2     n
##       <chr>      <chr> <int>
## 1    forest       fire    46
## 2    output   recovers     8
## 3       oil      sands     7
## 4     sands     output     7
## 5   youtube      video     5
## 6    forest    service     4
## 7       owl        oil     4
## 8  careless      match     3
## 9      fire disruption     3
## 10     fire management     3
## # ... with 383 more rows
…
